…
``` r
# install.packages("devtools")
devtools::install_github("thewileylab/synPUF")
```

## Example

This is a basic example which shows you how to solve a common problem:

``` r
library(synPUF)
suppressMessages(library(tidyverse))
person
#> # A tibble: 50 x 18
#>    person_id gender_concept_… year_of_birth month_of_birth day_of_birth
#>        <dbl>            <dbl>         <dbl>          <dbl>        <dbl>
#>  1      3736             8532          1933              2            1
#>  2     10872             8507          1933             11            1
#>  3     10969             8507          1959             12            1
#>  4     18893             8532          1935              3            1
#>  5     25764             8532          1941              4            1
#>  6     27814             8532          1942             12            1
#>  7     28079             8532          1928              6            1
#>  8     31254             8532          1941              4            1
#>  9     37805             8507          1937              6            1
#> 10     40221             8507          1981              8            1
#> # … with 40 more rows, and 13 more variables: birth_datetime <dttm>,
#> #   race_concept_id <dbl>, ethnicity_concept_id <dbl>, location_id <dbl>,
#> #   provider_id <dbl>, care_site_id <dbl>, person_source_value <chr>,
#> #   gender_source_value <chr>, gender_source_concept_id <dbl>,
#> #   race_source_value <chr>, race_source_concept_id <dbl>,
#> #   ethnicity_source_value <chr>, ethnicity_source_concept_id <dbl>
```
…
